{
    "sourceFile": "src/environments/environment.prod.ts",
    "activeCommit": 0,
    "commits": [
        {
            "activePatchIndex": 1,
            "patches": [
                {
                    "date": 1650356399762,
                    "content": "Index: \n===================================================================\n--- \n+++ \n"
                },
                {
                    "date": 1650356626177,
                    "content": "Index: \n===================================================================\n--- \n+++ \n@@ -1,7 +1,7 @@\n export const environment = {\n   production: true,\n    // apiUrl: 'http://demosyndic.gloulougroupe.com/api'\n    // apiUrl: 'http://syndic.axiasolution.com/api'\n-  apiUrl: 'https://syndic.gloulougroupe.com/api'\n+  apiUrl: 'http://syndic.gloulougroupe.com/api'\n   // apiUrl: 'http://demoalsyndic.axiasolution.com:8080/api'\n };\n"
                }
            ],
            "date": 1650356399762,
            "name": "Commit-0",
            "content": "export const environment = {\n  production: true,\n   // apiUrl: 'http://demosyndic.gloulougroupe.com/api'\n   // apiUrl: 'http://syndic.axiasolution.com/api'\n  apiUrl: 'https://syndic.gloulougroupe.com/api'\n  // apiUrl: 'http://demoalsyndic.axiasolution.com:8080/api'\n};\n"
        }
    ]
}